…
```r
activity %>% 
  group_by(interval) %>% 
summarise(avgsteps = mean(steps, na.rm = TRUE)) %>% 
            arrange(desc(avgsteps))
```

```
## `summarise()` ungrouping output (override with `.groups` argument)
```

```
## # A tibble: 288 x 2
##    interval avgsteps
##       <dbl>    <dbl>
##  1      835     206.
##  2      840     196.
##  3      850     183.
##  4      845     180.
##  5      830     177.
##  6      820     171.
##  7      855     167.
##  8      815     158.
##  9      825     155.
## 10      900     143.
## # ... with 278 more rows
```
…
